Engine/Binaries/Win64/CrashReportClient.exe	2019-01-26T09:04:35.584Z
Engine/Binaries/Win64/UE4Game.exe	2019-01-26T09:07:05.485Z
Engine/Extras/Redist/en-us/UE4PrereqSetup_x64.exe	2019-01-18T08:45:04.763Z
Engine/Binaries/ThirdParty/Oculus/OVRPlugin/OVRPlugin/Win64/OVRPlugin.dll	2019-01-18T08:42:15.444Z
Engine/Binaries/ThirdParty/Windows/DirectX/x64/WinPixEventRuntime.dll	2019-01-18T08:42:24.997Z
Engine/Binaries/ThirdParty/NVIDIA/NVaftermath/Win64/GFSDK_Aftermath_Lib.x64.dll	2019-01-18T08:42:15.185Z
Engine/Binaries/ThirdParty/PhysX3/Win64/VS2015/PxFoundationPROFILE_x64.dll	2019-01-18T08:42:21.634Z
Engine/Binaries/ThirdParty/PhysX3/Win64/VS2015/PxPvdSDKPROFILE_x64.dll	2019-01-18T08:42:21.690Z
Engine/Binaries/ThirdParty/PhysX3/Win64/VS2015/PhysX3PROFILE_x64.dll	2019-01-18T08:42:21.191Z
Engine/Binaries/ThirdParty/PhysX3/Win64/VS2015/PhysX3CookingPROFILE_x64.dll	2019-01-18T08:42:21.087Z
Engine/Binaries/ThirdParty/PhysX3/Win64/VS2015/PhysX3CommonPROFILE_x64.dll	2019-01-18T08:42:20.723Z
Engine/Binaries/ThirdParty/PhysX3/Win64/VS2015/APEX_ClothingPROFILE_x64.dll	2019-01-18T08:42:17.727Z
Engine/Binaries/ThirdParty/PhysX3/Win64/VS2015/APEX_LegacyPROFILE_x64.dll	2019-01-18T08:42:18.976Z
Engine/Binaries/ThirdParty/PhysX3/Win64/VS2015/ApexFrameworkPROFILE_x64.dll	2019-01-18T08:42:19.553Z
Engine/Binaries/ThirdParty/PhysX3/Win64/VS2015/NvClothPROFILE_x64.dll	2019-01-18T08:42:19.768Z
Engine/Binaries/ThirdParty/OpenVR/OpenVRv1_0_16/Win64/openvr_api.dll	2019-01-18T08:42:15.625Z
Engine/Binaries/ThirdParty/Ogg/Win64/VS2015/libogg_64.dll	2019-01-18T08:42:15.476Z
Engine/Binaries/ThirdParty/Vorbis/Win64/VS2015/libvorbis_64.dll	2019-01-18T08:42:24.944Z
Engine/Binaries/ThirdParty/Vorbis/Win64/VS2015/libvorbisfile_64.dll	2019-01-18T08:42:24.952Z
EscapeMoon.exe	2019-01-27T12:44:26.995Z
